## Interface: 90001
## Title: Lib: LibStub
## Notes: Universal Library Stub
## Credits: Kaelten, Cladhaire, ckknight, Mikk, Ammo, Nevcairiel
## X-Website: http://www.wowace.com/addons/libstub/
## X-Category: Library
## X-License: Public Domain

LibStub.lua
